<?xml version="1.0" encoding="UTF-8" standalone="no"?>
<!-- Created with Inkscape (http://www.inkscape.org/) -->

<svg
   xmlns:dc="http://purl.org/dc/elements/1.1/"
   xmlns:cc="http://creativecommons.org/ns#"
   xmlns:rdf="http://www.w3.org/1999/02/22-rdf-syntax-ns#"
   xmlns:svg="http://www.w3.org/2000/svg"
   xmlns="http://www.w3.org/2000/svg"
   xmlns:sodipodi="http://sodipodi.sourceforge.net/DTD/sodipodi-0.dtd"
   xmlns:inkscape="http://www.inkscape.org/namespaces/inkscape"
   width="210mm"
   height="297mm"
   viewBox="0 0 210 297"
   version="1.1"
   id="svg8"
   inkscape:version="0.92.0 r15299"
   sodipodi:docname="logo.svg"
   inkscape:export-filename="D:\Source\NxWeb\rsrc\logo.png"
   inkscape:export-xdpi="150"
   inkscape:export-ydpi="150">
  <defs
     id="defs2" />
  <sodipodi:namedview
     id="base"
     pagecolor="#ffffff"
     bordercolor="#666666"
     borderopacity="1.0"
     inkscape:pageopacity="0.0"
     inkscape:pageshadow="2"
     inkscape:zoom="0.98994949"
     inkscape:cx="281.85463"
     inkscape:cy="670.37013"
     inkscape:document-units="mm"
     inkscape:current-layer="layer1"
     showgrid="false"
     showguides="true"
     inkscape:guide-bbox="true"
     inkscape:window-width="1920"
     inkscape:window-height="1017"
     inkscape:window-x="-8"
     inkscape:window-y="-8"
     inkscape:window-maximized="1">
    <sodipodi:guide
       position="49.979401,228.78272"
       orientation="0,1"
       id="guide4485"
       inkscape:locked="false" />
    <sodipodi:guide
       position="87.129864,157.9563"
       orientation="0,1"
       id="guide4487"
       inkscape:locked="false" />
  </sodipodi:namedview>
  <metadata
     id="metadata5">
    <rdf:RDF>
      <cc:Work
         rdf:about="">
        <dc:format>image/svg+xml</dc:format>
        <dc:type
           rdf:resource="http://purl.org/dc/dcmitype/StillImage" />
        <dc:title />
      </cc:Work>
    </rdf:RDF>
  </metadata>
  <g
     inkscape:label="Calque 1"
     inkscape:groupmode="layer"
     id="layer1">
    <path
       style="color:#000000;font-style:normal;font-variant:normal;font-weight:normal;font-stretch:normal;font-size:medium;line-height:normal;font-family:sans-serif;font-variant-ligatures:normal;font-variant-position:normal;font-variant-caps:normal;font-variant-numeric:normal;font-variant-alternates:normal;font-feature-settings:normal;text-indent:0;text-align:start;text-decoration:none;text-decoration-line:none;text-decoration-style:solid;text-decoration-color:#000000;letter-spacing:normal;word-spacing:normal;text-transform:none;writing-mode:lr-tb;direction:ltr;text-orientation:mixed;dominant-baseline:auto;baseline-shift:baseline;text-anchor:start;white-space:normal;shape-padding:0;clip-rule:nonzero;display:inline;overflow:visible;visibility:visible;opacity:1;isolation:auto;mix-blend-mode:normal;color-interpolation:sRGB;color-interpolation-filters:linearRGB;solid-color:#000000;solid-opacity:1;vector-effect:none;fill:#2c5aa0;fill-opacity:1;fill-rule:evenodd;stroke:#d5f6ff;stroke-width:1;stroke-linecap:round;stroke-linejoin:round;stroke-miterlimit:4;stroke-dasharray:none;stroke-dashoffset:0;stroke-opacity:1;color-rendering:auto;image-rendering:auto;shape-rendering:auto;text-rendering:auto;enable-background:accumulate"
       d="m 169.96899,61.750236 a 6.4006401,6.4006401 0 0 0 -5.3883,2.562116 L 142.39031,93.138499 120.19942,64.312352 a 6.4006401,6.4006401 0 0 0 -5.06998,-2.495971 H 93.479051 a 6.4006401,6.4006401 0 0 0 -6.398575,6.400642 V 120.9337 L 41.26415,64.197115 a 6.4006401,6.4006401 0 0 0 -11.379149,4.019908 v 70.826167 a 6.4006401,6.4006401 0 1 0 12.799218,0 V 86.328064 l 45.816324,56.736586 a 6.4006401,6.4006401 0 0 0 11.378633,-4.02146 V 74.61715 h 12.099554 l 22.33507,29.01322 -24.25692,31.51022 a 6.4006401,6.4006401 0 1 0 10.14254,7.80676 l 22.19089,-28.82564 22.19038,28.82564 a 6.4006401,6.4006401 0 1 0 10.14253,-7.80676 l -24.2564,-31.51022 24.2564,-31.509193 a 6.4006401,6.4006401 0 0 0 -4.75423,-10.370941 z"
       id="path4493"
       inkscape:connector-curvature="0"
       inkscape:export-xdpi="150"
       inkscape:export-ydpi="150" />
    <g
       aria-label="NuttX Real-Time Operating System"
       transform="matrix(0.26458333,0,0,0.27592369,6.3500003,-11.974968)"
       style="font-style:normal;font-weight:normal;font-size:40px;line-height:25px;font-family:sans-serif;letter-spacing:0px;word-spacing:0px;fill:#4d4d4d;fill-opacity:1;stroke:none;stroke-width:1px;stroke-linecap:butt;stroke-linejoin:miter;stroke-opacity:1"
       id="flowRoot4497"
       inkscape:export-xdpi="150"
       inkscape:export-ydpi="150">
      <path
         d="m 92.52069,585.70002 h 3.633878 l 11.628412,19.62294 v -19.62294 h 3.34317 v 24.85573 h -3.63388 L 95.863858,590.9328 v 19.62295 H 92.52069 Z"
         style="font-style:normal;font-variant:normal;font-weight:normal;font-stretch:normal;font-size:37.21091843px;font-family:'MS PGothic';-inkscape-font-specification:'MS PGothic';fill:#4d4d4d"
         id="path4489"
         inkscape:connector-curvature="0" />
      <path
         d="m 115.92287,594.27597 h 2.9071 v 10.90164 q 0,1.74426 0.87213,2.61639 0.72678,0.72678 2.03498,0.72678 1.88961,0 3.34316,-1.45356 2.18033,-2.18032 2.18033,-4.506 v -8.28525 h 2.9071 v 16.27978 h -2.9071 v -2.9071 q -2.32568,3.19781 -5.66885,3.19781 -3.05246,0 -4.36065,-1.3082 -1.3082,-1.30819 -1.3082,-3.34317 z"
         style="font-style:normal;font-variant:normal;font-weight:normal;font-stretch:normal;font-size:37.21091843px;font-family:'MS PGothic';-inkscape-font-specification:'MS PGothic';fill:#4d4d4d"
         id="path4491"
         inkscape:connector-curvature="0" />
      <path
         d="m 135.83652,588.60712 h 2.90711 v 5.66885 h 4.94207 v 2.32568 h -4.94207 v 9.44809 q 0,0.87213 0.72677,1.59891 0.58142,0.58142 1.88962,0.58142 2.03497,0 3.63388,-1.01749 v 2.76175 q -1.59891,0.87213 -3.48853,0.87213 -2.9071,0 -4.2153,-1.3082 -1.45355,-1.45355 -1.45355,-3.19781 v -9.7388 H 132.348 v -2.32568 h 3.48852 z"
         style="font-style:normal;font-variant:normal;font-weight:normal;font-stretch:normal;font-size:37.21091843px;font-family:'MS PGothic';-inkscape-font-specification:'MS PGothic';fill:#4d4d4d"
         id="path4494"
         inkscape:connector-curvature="0" />
      <path
         d="m 148.91849,588.60712 h 2.9071 v 5.66885 h 4.94208 v 2.32568 h -4.94208 v 9.44809 q 0,0.87213 0.72678,1.59891 0.58142,0.58142 1.88962,0.58142 2.03497,0 3.63387,-1.01749 v 2.76175 q -1.5989,0.87213 -3.48852,0.87213 -2.9071,0 -4.2153,-1.3082 -1.45355,-1.45355 -1.45355,-3.19781 v -9.7388 h -3.48852 v -2.32568 h 3.48852 z"
         style="font-style:normal;font-variant:normal;font-weight:normal;font-stretch:normal;font-size:37.21091843px;font-family:'MS PGothic';-inkscape-font-specification:'MS PGothic';fill:#4d4d4d"
         id="path4496"
         inkscape:connector-curvature="0" />
      <path
         d="m 167.96002,597.61914 -7.84918,-11.91912 h 3.77923 l 5.81421,9.15737 5.8142,-9.15737 h 3.77924 l -7.84918,11.91912 8.57595,12.93661 h -3.77923 l -6.54098,-10.17486 -6.54098,10.17486 h -3.77924 z"
         style="font-style:normal;font-variant:normal;font-weight:normal;font-stretch:normal;font-size:37.21091843px;font-family:'MS PGothic';-inkscape-font-specification:'MS PGothic';fill:#4d4d4d"
         id="path4498"
         inkscape:connector-curvature="0" />
      <path
         d="m 195.28678,585.55466 h 12.20983 q 2.90711,0 4.79672,1.88962 1.88962,1.88962 1.88962,5.23279 0,3.34316 -1.88962,5.23278 -1.01748,1.01749 -2.9071,1.3082 l 5.66885,11.19234 h -3.63388 l -5.23278,-10.75628 h -7.55847 v 10.75628 h -3.34317 z m 3.34317,2.76175 v 8.57595 h 8.57595 q 1.45355,0 2.47104,-1.01748 1.01749,-1.01749 1.01749,-3.19781 0,-2.03498 -1.16285,-3.19782 -1.16284,-1.16284 -2.76174,-1.16284 z"
         style="font-style:normal;font-variant:normal;font-weight:normal;font-stretch:normal;font-size:37.21091843px;font-family:'MS PGothic';-inkscape-font-specification:'MS PGothic';fill:#4d4d4d"
         id="path4500"
         inkscape:connector-curvature="0" />
      <path
         d="m 217.23541,602.41586 q 0,-3.92459 2.47104,-6.39563 2.03497,-2.03497 5.23278,-2.03497 3.05246,0 5.23279,2.18033 2.03497,2.03497 2.03497,6.25027 h -11.77376 q 0,3.05246 1.45355,4.50601 1.30819,1.3082 3.34316,1.3082 2.03498,0 2.90711,-0.87213 1.01748,-1.01749 1.01748,-2.32569 h 3.19782 q -0.58142,2.6164 -1.88962,3.92459 -1.88962,1.88962 -5.23279,1.88962 -3.48852,0 -5.66885,-2.18033 -2.32568,-2.32568 -2.32568,-6.25027 z m 7.55847,-5.95956 q -1.74426,0 -2.9071,1.16284 -1.01749,1.01749 -1.3082,2.47104 h 8.28524 q 0,-1.45355 -1.16284,-2.6164 -1.01748,-1.01748 -2.9071,-1.01748 z"
         style="font-style:normal;font-variant:normal;font-weight:normal;font-stretch:normal;font-size:37.21091843px;font-family:'MS PGothic';-inkscape-font-specification:'MS PGothic';fill:#4d4d4d"
         id="path4502"
         inkscape:connector-curvature="0" />
      <path
         d="m 236.13158,599.07269 q 0.43606,-2.03497 1.88961,-3.48852 1.59891,-1.59891 4.65137,-1.59891 3.63388,0 5.23278,1.59891 1.45355,1.45355 1.45355,3.34317 v 9.15737 q 0,1.59891 1.16285,2.47104 h -3.48853 q -0.58142,-0.58142 -0.58142,-1.88962 -2.18033,2.18033 -5.52349,2.18033 -2.76175,0 -4.2153,-1.45355 -1.3082,-1.3082 -1.3082,-3.05246 0,-2.03497 1.3082,-3.34317 1.45355,-1.45355 4.06994,-1.88962 1.74426,-0.29071 3.05246,-0.72677 1.88962,-0.43607 2.61639,-0.87213 0,-1.16284 -0.87213,-2.03498 -0.87213,-0.87213 -2.47104,-0.87213 -2.03497,0 -2.9071,0.87213 -0.58142,0.58143 -0.87213,1.59891 z m 10.32021,3.19781 q -0.87213,0.29072 -1.59891,0.43607 -2.47103,0.58142 -3.77923,0.87213 -1.16284,0.29071 -1.74426,0.87213 -0.72678,0.72678 -0.72678,1.59891 0,1.01748 0.72678,1.74426 0.43606,0.43607 1.88962,0.43607 2.47103,0 4.06994,-1.59891 1.01749,-1.01749 1.16284,-1.45355 z"
         style="font-style:normal;font-variant:normal;font-weight:normal;font-stretch:normal;font-size:37.21091843px;font-family:'MS PGothic';-inkscape-font-specification:'MS PGothic';fill:#4d4d4d"
         id="path4504"
         inkscape:connector-curvature="0" />
      <path
         d="m 254.30098,585.70002 h 2.9071 v 24.85573 h -2.9071 z"
         style="font-style:normal;font-variant:normal;font-weight:normal;font-stretch:normal;font-size:37.21091843px;font-family:'MS PGothic';-inkscape-font-specification:'MS PGothic';fill:#4d4d4d"
         id="path4506"
         inkscape:connector-curvature="0" />
      <path
         d="m 260.69659,596.60165 h 16.57049 v 2.32569 h -16.57049 z"
         style="font-style:normal;font-variant:normal;font-weight:normal;font-stretch:normal;font-size:37.21091843px;font-family:'MS PGothic';-inkscape-font-specification:'MS PGothic';fill:#4d4d4d"
         id="path4508"
         inkscape:connector-curvature="0" />
      <path
         d="m 279.30206,585.70002 h 19.91366 v 2.76175 h -8.28525 v 22.09398 h -3.34316 v -22.09398 h -8.28525 z"
         style="font-style:normal;font-variant:normal;font-weight:normal;font-stretch:normal;font-size:37.21091843px;font-family:'MS PGothic';-inkscape-font-specification:'MS PGothic';fill:#4d4d4d"
         id="path4510"
         inkscape:connector-curvature="0" />
      <path
         d="m 302.70424,585.84537 h 2.9071 v 3.77924 h -2.9071 z m 0,8.4306 h 2.9071 v 16.27978 h -2.9071 z"
         style="font-style:normal;font-variant:normal;font-weight:normal;font-stretch:normal;font-size:37.21091843px;font-family:'MS PGothic';-inkscape-font-specification:'MS PGothic';fill:#4d4d4d"
         id="path4512"
         inkscape:connector-curvature="0" />
      <path
         d="m 313.16981,610.55575 h -2.9071 v -16.27978 h 2.9071 v 2.47104 q 1.88962,-2.76175 4.36066,-2.76175 2.76174,0 4.2153,1.45355 0.72677,0.72678 1.16284,1.59891 1.88961,-3.05246 5.23278,-3.05246 2.32569,0 3.63388,1.3082 1.45355,1.45355 1.45355,3.19781 v 12.06448 h -2.9071 v -11.48306 q 0,-0.87213 -0.58142,-1.45355 -0.87213,-0.87213 -2.03497,-0.87213 -2.03497,0 -3.34317,1.3082 -1.16284,1.16284 -1.16284,2.18032 v 10.32022 h -2.90711 v -11.3377 q 0,-0.87213 -0.87213,-1.74427 -0.72677,-0.72677 -2.18032,-0.72677 -1.59891,0 -2.76175,1.16284 -1.3082,1.3082 -1.3082,2.47104 z"
         style="font-style:normal;font-variant:normal;font-weight:normal;font-stretch:normal;font-size:37.21091843px;font-family:'MS PGothic';-inkscape-font-specification:'MS PGothic';fill:#4d4d4d"
         id="path4514"
         inkscape:connector-curvature="0" />
      <path
         d="m 337.15341,602.41586 q 0,-3.92459 2.47104,-6.39563 2.03497,-2.03497 5.23278,-2.03497 3.05246,0 5.23279,2.18033 2.03497,2.03497 2.03497,6.25027 h -11.77377 q 0,3.05246 1.45356,4.50601 1.30819,1.3082 3.34316,1.3082 2.03498,0 2.90711,-0.87213 1.01748,-1.01749 1.01748,-2.32569 h 3.19782 q -0.58142,2.6164 -1.88962,3.92459 -1.88962,1.88962 -5.23279,1.88962 -3.48852,0 -5.66885,-2.18033 -2.32568,-2.32568 -2.32568,-6.25027 z m 7.55847,-5.95956 q -1.74426,0 -2.9071,1.16284 -1.01749,1.01749 -1.3082,2.47104 h 8.28524 q 0,-1.45355 -1.16284,-2.6164 -1.01748,-1.01748 -2.9071,-1.01748 z"
         style="font-style:normal;font-variant:normal;font-weight:normal;font-stretch:normal;font-size:37.21091843px;font-family:'MS PGothic';-inkscape-font-specification:'MS PGothic';fill:#4d4d4d"
         id="path4516"
         inkscape:connector-curvature="0" />
      <path
         d="m 367.53262,598.05521 q 0,-6.10492 3.48853,-9.59344 3.05245,-3.05246 7.41311,-3.05246 4.36065,0 7.41311,3.05246 3.48852,3.48852 3.48852,9.59344 0,6.10491 -3.48852,9.59344 -3.05246,3.05245 -7.41311,3.05245 -4.36066,0 -7.41311,-3.05245 -3.48853,-3.48853 -3.48853,-9.59344 z m 10.90164,-9.88415 q -2.76175,0 -4.94208,2.18032 -2.47103,2.47104 -2.47103,7.70383 0,5.23278 2.47103,7.70382 2.18033,2.18033 4.94208,2.18033 2.76175,0 4.94207,-2.18033 2.47104,-2.47104 2.47104,-7.70382 0,-5.23279 -2.47104,-7.70383 -2.18032,-2.18032 -4.94207,-2.18032 z"
         style="font-style:normal;font-variant:normal;font-weight:normal;font-stretch:normal;font-size:37.21091843px;font-family:'MS PGothic';-inkscape-font-specification:'MS PGothic';fill:#4d4d4d"
         id="path4518"
         inkscape:connector-curvature="0" />
      <path
         d="m 396.45831,615.93389 h -2.9071 v -21.65792 h 2.9071 v 1.88962 q 1.74426,-2.18033 4.50601,-2.18033 3.05246,0 4.94208,1.88962 2.32568,2.32568 2.32568,6.54098 0,4.36065 -2.32568,6.68634 -1.88962,1.88961 -4.94208,1.88961 -3.05246,0 -4.50601,-2.32568 z m 4.50601,-19.33224 q -1.74426,0 -3.05246,1.3082 -1.45355,1.45355 -1.45355,3.48852 v 2.03498 q 0,2.03497 1.59891,3.63387 1.30819,1.3082 2.9071,1.3082 1.45355,0 2.47104,-1.01748 1.5989,-1.59891 1.5989,-4.94208 0,-3.19781 -1.45355,-4.65136 -1.16284,-1.16285 -2.61639,-1.16285 z"
         style="font-style:normal;font-variant:normal;font-weight:normal;font-stretch:normal;font-size:37.21091843px;font-family:'MS PGothic';-inkscape-font-specification:'MS PGothic';fill:#4d4d4d"
         id="path4520"
         inkscape:connector-curvature="0" />
      <path
         d="m 411.86597,602.41586 q 0,-3.92459 2.47103,-6.39563 2.03498,-2.03497 5.23279,-2.03497 3.05246,0 5.23278,2.18033 2.03498,2.03497 2.03498,6.25027 h -11.77377 q 0,3.05246 1.45355,4.50601 1.3082,1.3082 3.34317,1.3082 2.03497,0 2.9071,-0.87213 1.01749,-1.01749 1.01749,-2.32569 h 3.19781 q -0.58142,2.6164 -1.88962,3.92459 -1.88961,1.88962 -5.23278,1.88962 -3.48852,0 -5.66885,-2.18033 -2.32568,-2.32568 -2.32568,-6.25027 z m 7.55846,-5.95956 q -1.74426,0 -2.9071,1.16284 -1.01749,1.01749 -1.3082,2.47104 h 8.28525 q 0,-1.45355 -1.16284,-2.6164 -1.01749,-1.01748 -2.90711,-1.01748 z"
         style="font-style:normal;font-variant:normal;font-weight:normal;font-stretch:normal;font-size:37.21091843px;font-family:'MS PGothic';-inkscape-font-specification:'MS PGothic';fill:#4d4d4d"
         id="path4522"
         inkscape:connector-curvature="0" />
      <path
         d="m 435.26812,596.31094 q 2.32569,-2.32568 6.25028,-2.32568 v 3.19781 q -0.58143,-0.14535 -1.59891,-0.14535 -2.18033,0 -4.06995,1.88962 -1.5989,1.5989 -2.18032,3.34316 v 8.28525 h -2.90711 v -16.27978 h 2.90711 v 4.06995 q 0.72677,-1.16285 1.5989,-2.03498 z"
         style="font-style:normal;font-variant:normal;font-weight:normal;font-stretch:normal;font-size:37.21091843px;font-family:'MS PGothic';-inkscape-font-specification:'MS PGothic';fill:#4d4d4d"
         id="path4524"
         inkscape:connector-curvature="0" />
      <path
         d="m 443.69873,599.07269 q 0.43606,-2.03497 1.88962,-3.48852 1.5989,-1.59891 4.65136,-1.59891 3.63388,0 5.23279,1.59891 1.45355,1.45355 1.45355,3.34317 v 9.15737 q 0,1.59891 1.16284,2.47104 h -3.48852 q -0.58142,-0.58142 -0.58142,-1.88962 -2.18033,2.18033 -5.5235,2.18033 -2.76175,0 -4.2153,-1.45355 -1.3082,-1.3082 -1.3082,-3.05246 0,-2.03497 1.3082,-3.34317 1.45355,-1.45355 4.06994,-1.88962 1.74427,-0.29071 3.05246,-0.72677 1.88962,-0.43607 2.6164,-0.87213 0,-1.16284 -0.87214,-2.03498 -0.87213,-0.87213 -2.47103,-0.87213 -2.03498,0 -2.90711,0.87213 -0.58142,0.58143 -0.87213,1.59891 z m 10.32022,3.19781 q -0.87214,0.29072 -1.59891,0.43607 -2.47104,0.58142 -3.77924,0.87213 -1.16284,0.29071 -1.74426,0.87213 -0.72677,0.72678 -0.72677,1.59891 0,1.01748 0.72677,1.74426 0.43607,0.43607 1.88962,0.43607 2.47104,0 4.06994,-1.59891 1.01749,-1.01749 1.16285,-1.45355 z"
         style="font-style:normal;font-variant:normal;font-weight:normal;font-stretch:normal;font-size:37.21091843px;font-family:'MS PGothic';-inkscape-font-specification:'MS PGothic';fill:#4d4d4d"
         id="path4526"
         inkscape:connector-curvature="0" />
      <path
         d="m 462.88562,588.60712 h 2.9071 v 5.66885 h 4.94208 v 2.32568 h -4.94208 v 9.44809 q 0,0.87213 0.72678,1.59891 0.58142,0.58142 1.88961,0.58142 2.03498,0 3.63388,-1.01749 v 2.76175 q -1.5989,0.87213 -3.48852,0.87213 -2.9071,0 -4.2153,-1.3082 -1.45355,-1.45355 -1.45355,-3.19781 v -9.7388 h -3.48853 v -2.32568 h 3.48853 z"
         style="font-style:normal;font-variant:normal;font-weight:normal;font-stretch:normal;font-size:37.21091843px;font-family:'MS PGothic';-inkscape-font-specification:'MS PGothic';fill:#4d4d4d"
         id="path4528"
         inkscape:connector-curvature="0" />
      <path
         d="m 474.9501,585.84537 h 2.90711 v 3.77924 h -2.90711 z m 0,8.4306 h 2.90711 v 16.27978 h -2.90711 z"
         style="font-style:normal;font-variant:normal;font-weight:normal;font-stretch:normal;font-size:37.21091843px;font-family:'MS PGothic';-inkscape-font-specification:'MS PGothic';fill:#4d4d4d"
         id="path4530"
         inkscape:connector-curvature="0" />
      <path
         d="m 485.41568,610.55575 h -2.90711 v -16.27978 h 2.90711 v 2.9071 q 2.61639,-3.19781 5.52349,-3.19781 2.90711,0 4.65137,1.74426 1.16284,1.16284 1.16284,2.76175 v 12.06448 h -2.9071 V 599.3634 q 0,-1.30819 -0.87213,-2.18033 -0.87214,-0.87213 -2.47104,-0.87213 -1.45355,0 -2.90711,1.45356 -2.18032,2.18032 -2.18032,4.65136 z"
         style="font-style:normal;font-variant:normal;font-weight:normal;font-stretch:normal;font-size:37.21091843px;font-family:'MS PGothic';-inkscape-font-specification:'MS PGothic';fill:#4d4d4d"
         id="path4532"
         inkscape:connector-curvature="0" />
      <path
         d="m 501.40472,599.65411 q 0,-2.47104 1.59891,-4.06994 1.59891,-1.59891 4.06994,-1.59891 2.32569,0 4.06995,1.45355 1.45355,-1.45355 3.48852,-1.45355 h 1.3082 v 2.76175 q -1.74426,-0.72678 -3.92459,-0.14536 1.01748,1.3082 1.01748,3.05246 0,2.61639 -1.5989,4.2153 -1.45355,1.45355 -4.2153,1.45355 -1.45355,0 -3.05246,-0.72677 -0.72678,0.58142 -0.72678,1.16284 0,0.43606 0.29072,0.72677 0.72677,0.72678 3.34316,0.87214 2.32569,0.14535 4.94208,0.29071 1.45355,0.29071 2.18033,1.01748 1.16284,1.16284 1.16284,2.76175 0,1.74426 -1.16284,2.9071 -1.59891,1.59891 -6.97705,1.59891 -4.50601,0 -6.10492,-1.59891 -1.01748,-1.01748 -1.01748,-2.47104 0,-1.01748 0.72677,-1.74426 0.58142,-0.58142 1.74426,-1.16284 -0.43606,-0.29071 -1.01748,-0.87213 -0.72678,-0.72677 -0.72678,-1.88962 0,-1.45355 2.18033,-2.76174 -1.59891,-1.59891 -1.59891,-3.77924 z m 5.66885,-3.19781 q -1.01748,0 -1.74426,0.72677 -1.01748,1.01749 -1.01748,2.47104 0,1.45355 0.87213,2.32568 0.87213,0.87214 2.03497,0.87214 1.3082,0 2.03497,-0.72678 0.87213,-0.87213 0.87213,-2.47104 0,-1.45355 -1.01748,-2.47104 -0.72678,-0.72677 -2.03498,-0.72677 z m 3.05246,13.66338 q -3.48852,-0.14535 -5.37814,-0.43606 -1.01748,0.29071 -1.45355,0.72677 -0.58142,0.58142 -0.58142,1.3082 0,0.72678 0.58142,1.3082 0.87213,0.87213 3.77923,0.87213 3.92459,0 4.94208,-1.01749 0.58142,-0.58142 0.58142,-1.16284 0,-0.58142 -0.43607,-1.01749 -0.58142,-0.58142 -2.03497,-0.58142 z"
         style="font-style:normal;font-variant:normal;font-weight:normal;font-stretch:normal;font-size:37.21091843px;font-family:'MS PGothic';-inkscape-font-specification:'MS PGothic';fill:#4d4d4d"
         id="path4534"
         inkscape:connector-curvature="0" />
      <path
         d="m 530.18506,592.241 q 0,-2.76175 2.03497,-4.79672 2.03497,-2.03497 6.25027,-2.03497 4.50601,0 6.83169,2.32568 2.03497,2.03497 2.03497,4.79672 h -3.34316 q 0,-1.74426 -1.16284,-2.9071 -1.3082,-1.3082 -4.06995,-1.3082 -3.05246,0 -4.2153,1.16284 -1.01748,1.01749 -1.01748,2.32568 0,1.3082 0.58142,1.88962 0.72677,0.72678 2.61639,1.45355 3.34317,1.45355 7.55847,3.34317 1.16284,0.43607 2.18032,1.45355 1.59891,1.59891 1.59891,3.77924 0,2.9071 -2.03497,4.94207 -2.18033,2.18033 -7.1224,2.18033 -4.79672,0 -7.41312,-2.61639 -1.88961,-1.88962 -1.88961,-5.5235 h 3.34317 q 0,2.61639 1.16284,3.77923 1.5989,1.59891 4.94207,1.59891 3.05246,0 4.50601,-1.45355 1.16284,-1.16284 1.16284,-2.32568 0,-1.3082 -0.87213,-2.18033 -0.72677,-0.72678 -2.32568,-1.45355 -1.45355,-0.72678 -3.77924,-1.74426 -2.61639,-1.16284 -4.21529,-1.88962 -1.16285,-0.43607 -2.03498,-1.3082 -1.30819,-1.30819 -1.30819,-3.48852 z"
         style="font-style:normal;font-variant:normal;font-weight:normal;font-stretch:normal;font-size:37.21091843px;font-family:'MS PGothic';-inkscape-font-specification:'MS PGothic';fill:#4d4d4d"
         id="path4536"
         inkscape:connector-curvature="0" />
      <path
         d="m 550.09869,594.13062 h 3.19782 l 5.23278,12.9366 5.23279,-12.9366 h 3.19781 l -7.26776,17.44261 q -0.87213,2.18033 -1.74426,3.05246 -1.16284,1.16284 -2.9071,1.16284 -2.03497,0 -2.61639,-0.58142 v -2.76174 q 1.16284,0.58142 2.47103,0.58142 0.72678,0 1.3082,-0.58142 0.58142,-0.58143 0.87213,-1.59891 z"
         style="font-style:normal;font-variant:normal;font-weight:normal;font-stretch:normal;font-size:37.21091843px;font-family:'MS PGothic';-inkscape-font-specification:'MS PGothic';fill:#4d4d4d"
         id="path4538"
         inkscape:connector-curvature="0" />
      <path
         d="m 569.72165,598.92734 q 0,-1.88962 1.30819,-3.19782 1.74427,-1.74426 4.94208,-1.74426 3.48852,0 5.08743,1.59891 1.45355,1.45355 1.45355,3.19781 h -2.9071 q -0.14536,-1.01748 -0.58142,-1.45355 -0.87213,-0.87213 -3.19782,-0.87213 -1.45355,0 -2.32568,0.87213 -0.72677,0.72678 -0.72677,1.59891 0,0.58142 0.43606,1.01748 0.58142,0.58142 3.63388,1.3082 1.88962,0.43606 3.19781,0.87213 1.16284,0.43607 1.74427,1.01749 1.16284,1.16284 1.16284,2.76174 0,1.74427 -1.45355,3.19782 -1.74427,1.74426 -5.37815,1.74426 -3.63387,0 -5.37814,-1.74426 -1.45355,-1.45355 -1.45355,-3.63388 h 2.90711 q 0.14535,1.30819 0.72677,1.88962 1.01749,1.01748 3.05246,1.01748 2.47104,0 3.34317,-0.87213 0.58142,-0.58142 0.58142,-1.45355 0,-0.58142 -0.72678,-1.3082 -0.58142,-0.58142 -1.88961,-0.87213 -2.6164,-0.58142 -3.92459,-1.01748 -1.59891,-0.43607 -2.32569,-1.16285 -1.30819,-1.30819 -1.30819,-2.76174 z"
         style="font-style:normal;font-variant:normal;font-weight:normal;font-stretch:normal;font-size:37.21091843px;font-family:'MS PGothic';-inkscape-font-specification:'MS PGothic';fill:#4d4d4d"
         id="path4540"
         inkscape:connector-curvature="0" />
      <path
         d="m 588.18176,588.60712 h 2.9071 v 5.66885 h 4.94208 v 2.32568 h -4.94208 v 9.44809 q 0,0.87213 0.72678,1.59891 0.58142,0.58142 1.88962,0.58142 2.03497,0 3.63388,-1.01749 v 2.76175 q -1.59891,0.87213 -3.48853,0.87213 -2.9071,0 -4.2153,-1.3082 -1.45355,-1.45355 -1.45355,-3.19781 v -9.7388 h -3.48852 v -2.32568 h 3.48852 z"
         style="font-style:normal;font-variant:normal;font-weight:normal;font-stretch:normal;font-size:37.21091843px;font-family:'MS PGothic';-inkscape-font-specification:'MS PGothic';fill:#4d4d4d"
         id="path4542"
         inkscape:connector-curvature="0" />
      <path
         d="m 599.51944,602.41586 q 0,-3.92459 2.47104,-6.39563 2.03497,-2.03497 5.23278,-2.03497 3.05246,0 5.23279,2.18033 2.03497,2.03497 2.03497,6.25027 h -11.77377 q 0,3.05246 1.45355,4.50601 1.3082,1.3082 3.34317,1.3082 2.03497,0 2.90711,-0.87213 1.01748,-1.01749 1.01748,-2.32569 h 3.19781 q -0.58142,2.6164 -1.88961,3.92459 -1.88962,1.88962 -5.23279,1.88962 -3.48852,0 -5.66885,-2.18033 -2.32568,-2.32568 -2.32568,-6.25027 z m 7.55847,-5.95956 q -1.74427,0 -2.90711,1.16284 -1.01748,1.01749 -1.30819,2.47104 h 8.28524 q 0,-1.45355 -1.16284,-2.6164 -1.01749,-1.01748 -2.9071,-1.01748 z"
         style="font-style:normal;font-variant:normal;font-weight:normal;font-stretch:normal;font-size:37.21091843px;font-family:'MS PGothic';-inkscape-font-specification:'MS PGothic';fill:#4d4d4d"
         id="path4544"
         inkscape:connector-curvature="0" />
      <path
         d="M 621.46811,610.55575 H 618.561 v -16.27978 h 2.90711 v 2.47104 q 1.88961,-2.76175 4.36065,-2.76175 2.76175,0 4.2153,1.45355 0.72678,0.72678 1.16284,1.59891 1.88962,-3.05246 5.23279,-3.05246 2.32568,0 3.63388,1.3082 1.45355,1.45355 1.45355,3.19781 v 12.06448 h -2.90711 v -11.48306 q 0,-0.87213 -0.58142,-1.45355 -0.87213,-0.87213 -2.03497,-0.87213 -2.03497,0 -3.34317,1.3082 -1.16284,1.16284 -1.16284,2.18032 v 10.32022 h -2.9071 v -11.3377 q 0,-0.87213 -0.87213,-1.74427 -0.72678,-0.72677 -2.18033,-0.72677 -1.59891,0 -2.76175,1.16284 -1.30819,1.3082 -1.30819,2.47104 z"
         style="font-style:normal;font-variant:normal;font-weight:normal;font-stretch:normal;font-size:37.21091843px;font-family:'MS PGothic';-inkscape-font-specification:'MS PGothic';fill:#4d4d4d"
         id="path4546"
         inkscape:connector-curvature="0" />
    </g>
  </g>
</svg>
